com\mycompany\torres\Hanoi.class
com\mycompany\torres\Disco.class
com\mycompany\torres\MainApp.class
com\mycompany\torres\Poste.class
com\mycompany\torres\FXMLController.class
com\mycompany\torres\TorresFrame.class
