C:\Users\CinthyaLiliana\Documents\NetBeansProjects\Torres\src\main\java\com\mycompany\torres\TorresFrame.java
C:\Users\CinthyaLiliana\Documents\NetBeansProjects\Torres\src\main\java\com\mycompany\torres\FXMLController.java
C:\Users\CinthyaLiliana\Documents\NetBeansProjects\Torres\src\main\java\com\mycompany\torres\MainApp.java
C:\Users\CinthyaLiliana\Documents\NetBeansProjects\Torres\src\main\java\com\mycompany\torres\Hanoi.java
C:\Users\CinthyaLiliana\Documents\NetBeansProjects\Torres\src\main\java\com\mycompany\torres\Poste.java
C:\Users\CinthyaLiliana\Documents\NetBeansProjects\Torres\src\main\java\com\mycompany\torres\Disco.java
